<?xml version="1.0" encoding="utf-8"?>
<!-- Generator: Adobe Illustrator 16.0.0, SVG Export Plug-In . SVG Version: 6.00 Build 0)  -->
<!DOCTYPE svg PUBLIC "-//W3C//DTD SVG 1.1//EN" "http://www.w3.org/Graphics/SVG/1.1/DTD/svg11.dtd">
<svg version="1.1" xmlns="http://www.w3.org/2000/svg" xmlns:xlink="http://www.w3.org/1999/xlink" x="0px" y="0px" width="1920px"
	 height="1080px" viewBox="0 0 1920 1080" enable-background="new 0 0 1920 1080" xml:space="preserve">
<g id="Fond_Noir">
	<rect fill-rule="evenodd" clip-rule="evenodd" width="1920" height="1080"/>
	<rect x="-1918.758" y="0.303" fill-rule="evenodd" clip-rule="evenodd" width="1920" height="1080"/>
</g>
<g id="D">
</g>
<g id="C">
</g>
<g id="B">
</g>
<g id="A">
	<g>
		
			<path fill-rule="evenodd" clip-rule="evenodd" fill="none" stroke="#777777" stroke-width="8" stroke-linecap="round" stroke-linejoin="round" stroke-miterlimit="10" d="
			M525.225-2.334c-1.433,14.595-1.457,29.038-0.514,43.576"/>
		
			<path fill-rule="evenodd" clip-rule="evenodd" fill="none" stroke="#777777" stroke-width="8" stroke-linecap="round" stroke-linejoin="round" stroke-miterlimit="10" d="
			M644.345-6.738c-0.884,9.078,0.903,18.143,0.354,27.334"/>
		<g>
			
				<path fill-rule="evenodd" clip-rule="evenodd" fill="none" stroke="#777777" stroke-width="8" stroke-linecap="round" stroke-linejoin="round" stroke-miterlimit="10" d="
				M1368.888,1081.835c-18.575-5.432-37.331-10.098-56.074-14.887c-37.816-9.666-75.34-20.498-113-30.783
				c-7.239-1.975-14.052-6.732-21.771-3.59c-5.437-1.828-7.448-7.811-12.897-9.061c-0.631-0.145-1.273-1.34-1.46-2.145
				c-3.718-16.377-15.024-28.463-23.633-42.084c-10.688-16.91-21.165-33.959-31.78-50.912c-5.105-8.158-10.314-16.256-15.506-24.361
				c-0.66-1.033-1.724-1.873-2.162-2.979c-5.238-13.277-6.854-14.67,7.443-19.627c27.959-9.701,56.055-19.098,83.239-30.734
				c36.237-15.51,71.838-32.512,107.913-48.414c11.012-4.854,22.102-9.725,33.863-12.809c3.389-0.889,5.407-4.33,7.228-6.975
				c-3.16-8.746-0.481-17.193,1.087-25.346c6.296-32.656,14.399-64.988,17.513-98.209c0.114-1.203,0.66-2.68-0.45-3.52
				c-20.931-7.313-42.967-10.49-62.887-19.586c-25.315-11.547-51.07-22.377-74.649-37.439c-7.942-5.068-15.763-10.32-23.634-15.486"
				/>
			
				<path fill-rule="evenodd" clip-rule="evenodd" fill="none" stroke="#777777" stroke-width="8" stroke-linecap="round" stroke-linejoin="round" stroke-miterlimit="10" d="
				M1937.07,262.433c-8.52,23.006-15.008,46.6-20.889,70.282c-5.124,20.614-13.348,40.238-17.536,61.144
				c-3.195,15.995-8.663,31.534-13.024,47.301c-5.046,18.247-12.562,35.656-17.871,53.841c-7.864,26.946-14.49,54.211-22.024,81.24
				c-9.269,33.24-18.082,66.631-28.229,99.605c-7.888,25.639-17.733,50.672-26.324,76.107c-9.113,26.986-17.62,54.17-26.704,81.162
				c-4.012,11.947-9.16,23.518-13.119,35.492c-4.83,14.627-8.88,29.514-13.409,44.25c-2.812,9.143-5.347,18.438-8.951,27.273
				c-6.091,14.918-9.816,30.549-14.447,45.873c-6.939,22.98-16.42,44.906-25.137,67.182"/>
			
				<path fill-rule="evenodd" clip-rule="evenodd" fill="none" stroke="#777777" stroke-width="8" stroke-linecap="round" stroke-linejoin="round" stroke-miterlimit="10" d="
				M945.139,811.733c-3.936,2.156-6.127,5.707-8.165,9.568c-9.047,17.152-21.704,31.793-33.067,47.346
				c-8.891,12.166-17.035,24.9-25.042,37.674c-1.635,2.607-3.227,5.131-5.356,7.256c-7.137,7.119-12.2,15.836-18.473,23.609
				c-6.56,8.133-9.429,18.1-12.829,27.502c-2.392,6.604-1.745,14.707-0.934,21.969c0.955,8.615,1.97,17.225,2.967,25.834
				c1.98,17.09,9.11,32.199,18.708,46.701c12.079,15.42,30.891,13.228,28.746,13.087c26.023-1.052,60.774-5.85,68.446-12.715
				c13.576-12.143,7.797-10.087,18.214-25.128c9.011-13.025,9.84-26.5,12.61-40.359c0.913-4.559,1.321-9.287,7.263-11.27
				c5.143-1.713,7.707-6.002,9.938-11.516c11.461-28.338,23.392-56.484,34.493-84.971c9.462-24.264,18.906-48.582,29.648-72.287
				c11.137-24.584,21.404-49.539,32.644-74.086c16.942-36.969,35.679-72.973,54.38-109.023
				c7.701-14.855,17.711-28.588,24.709-43.734c8.704-18.834,19.008-36.776,28.518-55.139c19.289-37.243,43.073-71.408,75.214-98.898
				c12.489-10.685,26.932-18.878,40.376-28.344c18.936-13.339,36.52-28.617,55.611-41.725
				c25.405-17.443,52.602-31.416,82.488-40.253c31.485-9.309,63.079-18.385,93.157-32.091
				c22.793-10.384,42.673-23.973,58.333-43.654c2.536-3.181,2.596-6.5,2.007-9.657c-6.639-35.378-16.442-69.903-33.39-101.74
				c-9.174-17.232-19.409-34.081-33.468-48.339c-7.551-7.66-15.325-15.256-22.252-23.501c-12.026-14.328-27.729-12.375-41.343-4.905
				c-12.4,6.807-20.937,18.39-30.253,28.71c-14.263,15.812-26.686,33.077-38.599,50.766c-28.529,42.353-59.36,83.035-90.587,123.436
				c-25.153,32.549-49.051,66.067-74,98.781c-29.51,38.694-56.332,79.224-83.457,119.57c-4.715,7.013-8.859,15.421-19.085,16.314"/>
			
				<path fill-rule="evenodd" clip-rule="evenodd" fill="none" stroke="#777777" stroke-width="8" stroke-linecap="round" stroke-linejoin="round" stroke-miterlimit="10" d="
				M738.373,26.912c-33.937,20.861-64.295,46.711-97.282,68.897c-19.465,13.093-36.4,29.526-54.693,44.188
				c-13.913,11.152-29.476,19.786-44.158,29.734c-21.534,14.589-41.941,30.836-62.946,46.215c-4.44,3.25-8.583,6.888-14.695,7.666
				c-4.809,0.613-8.6,11.853-9.17,16.719c-1.303,11.09,0.914,23.643-10.05,31.773"/>
			
				<path fill-rule="evenodd" clip-rule="evenodd" fill="none" stroke="#777777" stroke-width="8" stroke-linecap="round" stroke-linejoin="round" stroke-miterlimit="10" d="
				M1784.473,71.316c4.747,2.349,6.964,7.149,9.402,11.189c6.477,10.729,13.325,21.558,17.5,33.249
				c3.419,9.588,6.53,19.489,9.18,29.407c5.383,20.158,9.054,40.712,12.502,61.268c2.349,13.982,0.732,28.103-1.383,42.049
				c-2.3,15.187-2.283,30.515-2.775,45.78c-0.816,25.268-3.784,50.24-10.663,74.496c-5.641,19.875-14.201,38.788-22.709,57.63
				c-6.565,14.553-13.222,29.064-19.927,43.553c-7.677,16.618-19.457,30.54-30.373,44.947
				c-12.219,16.126-24.619,32.238-39.775,45.821c-15.066,13.498-29.502,27.777-45.795,39.818
				c-14.635,10.813-31.924,16.832-47.844,25.326c-26.842,14.328-56.068,21.381-85.012,29.232
				c-18.588,5.041-37.391,9.223-56.788,10.676c-17.723,1.334-35.337,3.803-53.167,2.078c-1.688-0.16-3.442,0.439-5.166,0.686"/>
			
				<path fill-rule="evenodd" clip-rule="evenodd" fill="none" stroke="#777777" stroke-width="8" stroke-linecap="round" stroke-linejoin="round" stroke-miterlimit="10" d="
				M806.356,687.714c-15.061-3.473-27.541-11.938-39.854-20.684c-26.676-18.947-46.267-44.137-61.808-72.443
				c-6.376-11.625-8.666-24.787-10.099-38.244c-2.006-18.825-0.354-37.441,0.394-56.127c0.391-9.829,3.269-19.321,5.828-28.788
				c1.604-5.939,3.523-11.794,5.118-17.731c1.703-6.341-1.066-9.123-7.347-7.342c-5.86,1.661-10.567,5.5-15.493,8.849
				c-14.967,10.167-28.704,21.946-43.023,32.947c-17.665,13.578-36.672,25.419-55.196,37.862c-8.329,5.6-14.61,13.508-22.729,19.415
				c-4.509,3.273-8.57,7.348-13.478,10.044c-4.544,2.498-5.236,7.348-4.1,10.332c7.443,19.627,11.489,40.334,19.064,59.848
				c7.642,19.682,15.563,39.248,22.784,59.09c4.688,12.885,10.892,25.314,14.469,38.471c5.508,20.264,14.682,39.242,19.54,59.701
				c7.073,29.799,19.142,58.129,26.507,87.867c3.542,14.309,7.101,28.619,11.111,42.803c4.893,17.303,10.477,34.41,15.373,51.707
				c4.245,14.994,16.942,46.678,24.276,61.258c0.574,3.016,42.131,73.19,40.68,76.147"/>
			
				<path fill-rule="evenodd" clip-rule="evenodd" fill="none" stroke="#777777" stroke-width="8" stroke-linecap="round" stroke-linejoin="round" stroke-miterlimit="10" d="
				M724.018-1c0.574,3.016,15.806,25.748,14.355,28.705"/>
			
				<path fill-rule="evenodd" clip-rule="evenodd" fill="none" stroke="#777777" stroke-width="8" stroke-linecap="round" stroke-linejoin="round" stroke-miterlimit="10" d="
				M146.471,60.194c6.131,8.44,15.028,12.934,25.013,15.635c4.563,1.231,8.816,3.556,13.324,5.043
				c8.375,2.757,16.361,1.415,24.385-2.088c12.219-5.337,24.73-9.876,36.189-16.977"/>
			
				<path fill-rule="evenodd" clip-rule="evenodd" fill="none" stroke="#777777" stroke-width="8" stroke-linecap="round" stroke-linejoin="round" stroke-miterlimit="10" d="
				M449.068,308.279c0.901-11-2.929-21.558-3.121-32.479c-0.021-1.313-1.255-3.088-2.532-4.638
				c-6.064-7.375-9.414-15.896-11.955-25.463c-2.442-9.203-6.839-18.353-10.621-27.406c-10.246-24.538-17.986-50.01-28.085-74.547
				c-9.811-23.826-18.662-48.12-30.803-70.949l-10.091-33.852l-8-31.657"/>
			
				<path fill-rule="evenodd" clip-rule="evenodd" fill="none" stroke="#777777" stroke-width="8" stroke-linecap="round" stroke-linejoin="round" stroke-miterlimit="10" d="
				M395.181,724.624c0.246,1.965,0.832,3.965,0.679,5.9c-0.583,7.25-5.909,12.066-9.57,17.697
				c-11.724,18.023-23.132,36.273-35.507,53.84c-19.569,27.777-42.371,53.039-64.406,78.811
				c-13.958,16.33-30.458,30.543-46.275,45.219c-26.979,25.027-55.299,48.492-85.673,69.309
				c-8.524,5.838-15.135,14.701-26.43,16.646c-3.644,0.631-5.311,5.449-4.367,9.305c2.259,9.264,2.024,18.715,2.814,28.08
				l6.581,34.785v4.14"/>
			
				<path fill-rule="evenodd" clip-rule="evenodd" fill="none" stroke="#777777" stroke-width="8" stroke-linecap="round" stroke-linejoin="round" stroke-miterlimit="10" d="
				M1047.014,226.337c-4.771-1.499-8.604,1-12.55,2.958c-14.857,7.371-28.572,16.683-42.769,25.183
				c-3.777,2.265-7.483,4.175-11.833,3.455c-1.49-0.246-2.074-0.072-3.005,0.865c-5.923,5.971-14.087,11.913-15.511,19.35
				c-1.923,10.005-6.818,18.19-10.381,27.148c-11.883,29.905-26.955,58.389-40.308,87.634
				c-9.815,21.498-20.284,42.761-29.728,64.469c-9.414,21.629-19.255,43.087-27.938,65.006
				c-12.683,32.013-23.715,64.593-32.026,98.091c-3.761,15.15-5.674,30.566-8.675,45.813c-1.33,6.76-4.244,13.463-4.674,19.963
				c-0.487,7.365-2.701,14.213-3.424,21.375c-1.708,16.953-8.044,32.824-11.183,49.447c-2.92,15.463-5.687,30.951-8.165,46.498
				c-2.754,17.295-6.374,34.453-9.471,51.693c-3.4,18.912-7.161,37.752-9.783,56.814c-2.147,15.613-6.169,30.961-8.576,46.551
				c-2.499,16.154-3.935,32.477-6.064,48.697c-1.676,12.771-1.911,25.693-4.278,38.412c-1.033,5.545-0.847,11.348-1.256,16.982"/>
			
				<path fill-rule="evenodd" clip-rule="evenodd" fill="none" stroke="#777777" stroke-width="8" stroke-linecap="round" stroke-linejoin="round" stroke-miterlimit="10" d="
				M436.521,372.501c-6.164,4.049-5.8,10.919-7.402,16.975c-8.813,33.32-13.198,67.538-20.599,101.147
				c-6.164,27.995-12.373,56-17.624,84.174c-4.959,26.637-10.987,53.021-18.806,78.896c-8.873,29.357-19.516,58.17-31.563,86.418
				c-1.88,4.408-2.199,8.777-0.712,13.299"/>
			
				<path fill-rule="evenodd" clip-rule="evenodd" fill="none" stroke="#777777" stroke-width="8" stroke-linecap="round" stroke-linejoin="round" stroke-miterlimit="10" d="
				M986.476,1026.548c5.894,3.852,6.284,10.273,7.342,16.244"/>
			
				<path fill-rule="evenodd" clip-rule="evenodd" fill="none" stroke="#777777" stroke-width="8" stroke-linecap="round" stroke-linejoin="round" stroke-miterlimit="10" d="
				M1161.432,409.412c-2.841,11.928-0.168,24.215-2.271,36.162c-2.001,11.353-2.103,23.063-6.482,34.008
				c-0.967,2.417-1.159,5.458-0.751,8.065c2.704,17.458-10.645,26.723-19.284,38.4c-25.315,11.546-46.702,30.512-73.158,39.649
				c-19.5,6.734-37.985,16.244-58.219,20.984c-7.299,1.711-13.673,6.09-20.588,9.012c-15.596,6.576-30.999,13.822-45.782,22.059
				c-19.573,10.91-33.462,27.725-44.391,47.074c-4.718,8.352-9.383,16.617-12.892,25.707c-3.019,7.82-5.118,15.871-6.765,23.813
				c-6.305,30.41-14.463,60.383-20.936,90.744c-3.749,17.584-3.304,35.324-2.415,53.16c0.315,6.332,0.805,12.711,0.483,19.193
				c-0.808,16.461,6.137,30.176,18.169,41.326"/>
			
				<path fill-rule="evenodd" clip-rule="evenodd" fill="none" stroke="#777777" stroke-width="8" stroke-linecap="round" stroke-linejoin="round" stroke-miterlimit="10" d="
				M430.613,249.961c-9.107,2.955-16.779,8.837-24.111,14.352c-10.63,7.999-23.339,12.896-32.666,22.618
				c-0.249,0.261-0.213,0.522-0.781,0.733c-26.508,9.918-44.894,21.11-62.877,35.237c-12.598,9.9-26.487,18.055-39.187,27.974
				c-13.946,10.892-28.328,21.279-41.067,33.54c-17.428,16.782-36.964,31.249-52.65,49.979
				c-17.77,21.216-35.54,42.398-43.227,69.561c-5.277,18.645-11.421,36.979-13.208,56.744c-2.001,22.174-3.953,44.336-2.902,66.467
				c0.91,19.236,1.574,38.52-0.009,57.557c-1.415,17.008-1.132,34.016-2.162,50.998c-0.616,10.17,1.423,20.605,1.102,30.98
				c-0.183,5.906-1.682,12.063-0.501,17.668c3.406,16.16,1.48,32.561,3.21,48.801c1.664,15.619,1.192,31.465,1.739,47.211
				c1.199,34.441,1.361,68.895,1.767,103.346c0.108,9.264-1.739,19.219,3.391,28.057"/>
			
				<path fill-rule="evenodd" clip-rule="evenodd" fill="none" stroke="#777777" stroke-width="8" stroke-linecap="round" stroke-linejoin="round" stroke-miterlimit="10" d="
				M1177.67,1033.192c-1.057,8.074,5.34,12.705,8.993,18.365"/>
			
				<path fill-rule="evenodd" clip-rule="evenodd" fill="none" stroke="#777777" stroke-width="8" stroke-linecap="round" stroke-linejoin="round" stroke-miterlimit="10" d="
				M365.654,286.871c-4.361-7.69-12.265-11.457-19.368-15.169c-8.685-4.542-16.395-10.435-24.877-15.181
				c-21.143-11.835-43.212-21.24-67.25-24.847c-12.898-1.937-26.048-2.304-39.103-3.079c-15.49-0.922-30.999-2.037-46.501-2.084
				c-11.207-0.033-22.366,1.21-33.266,4.856c-15.569,5.208-31.515,9.279-47.183,14.217c-18.828,5.935-37.392,7.647-60.246,14.86
				c-12.201,6.115-17.776,4.126-29.091,11.895"/>
			
				<path fill-rule="evenodd" clip-rule="evenodd" fill="none" stroke="#777777" stroke-width="8" stroke-linecap="round" stroke-linejoin="round" stroke-miterlimit="10" d="
				M1109.936,50.02c-1.917,3.034-3.725,6.611-6.259,8.51c-5.096,3.82-6.693,8.555-6.405,14.259c0.308,5.986-1.994,12.3,2.764,17.827
				c1.76,2.042,2.523,5.232,3.01,8.026c2.674,15.436,7.035,30.5,10.159,45.807c2.631,12.901,6.578,25.592,8.639,38.409
				c3.863,24,11.918,46.9,16.137,70.762c4.673,26.46,12.068,52.5,15.606,79.079c2.637,19.834,6.729,39.602,7.096,59.733
				c0.089,4.919,0.011,9.843,0.011,14.762"/>
			
				<path fill-rule="evenodd" clip-rule="evenodd" fill="none" stroke="#777777" stroke-width="8" stroke-linecap="round" stroke-linejoin="round" stroke-miterlimit="10" d="
				M1785.213,64.672c-10.027-11.847-17.248-25.585-25.713-38.472"/>
			
				<path fill-rule="evenodd" clip-rule="evenodd" fill="none" stroke="#777777" stroke-width="8" stroke-linecap="round" stroke-linejoin="round" stroke-miterlimit="10" d="
				M1131.905,527.522c5.106,10.726-3.605,16.96-8.194,24.316c-15.338,24.552-33.9,46.792-50.757,70.251
				c-13.331,18.563-24.571,38.717-38.779,56.535c-17.907,22.469-31.347,47.723-47.753,71.057
				c-10.525,14.977-21.525,29.623-32.494,44.281c-1.946,2.607-3.995,5.432-7.312,6.693"/>
			
				<path fill-rule="evenodd" clip-rule="evenodd" fill="none" stroke="#777777" stroke-width="8" stroke-linecap="round" stroke-linejoin="round" stroke-miterlimit="10" d="
				M1587.375,396.862c-31.042-5.157-62.503-5.046-93.777-7.004c-10.675-0.667-22.204-1.177-32.494,4.722
				c-10.874,6.227-14.431,13.288-11.036,23.69c2.055,6.293,13.703,12.217,22.138,12.697c14.291,0.812,28.607,0.637,42.898,3.125
				c7.75,1.352,16.022,1.937,24.308,1.508c9.761-0.508,19.661,1.627,29.508,2.595c2.95,0.288,5.899,0.636,8.854,0.723
				c20.318,0.594,40.431,2.764,60.574,5.629c17.098,2.437,32.944,7.931,48.672,14.35c10.982,4.484,18.81,12.82,19.508,24.36
				c0.63,10.456-0.09,22.203-7.216,30.759c-5.96,7.166-15.38,9.503-24.829,9.017c-13.061-0.673-26.145-0.768-39.15-2.738
				c-6.266-0.95-12.7,0.464-19.182,0.057c-20.637-1.298-41.338-1.493-61.991-2.521c-7.906-0.391-15.981-1.039-23.55-3.127
				c-5.7-1.571-11.529-0.943-17.056-2.682"/>
			
				<path fill-rule="evenodd" clip-rule="evenodd" fill="none" stroke="#777777" stroke-width="8" stroke-linecap="round" stroke-linejoin="round" stroke-miterlimit="10" d="
				M1430.874,740.124c5.604,18.346,12.393,36.213,19.662,54c10.585,25.922,22.029,51.684,28.854,78.928
				c5.082,20.287,11.859,40.074,16.533,60.463c1.549,6.785,5.894,12.742,7.779,19.285c4.26,14.773,7.396,29.895,10.495,44.979
				c1.802,8.789-1.592,12.902-9.432,17.092c-14.911,7.959-29.328,5.25-43.591-0.955c-13.812-6.014-28.565-9.492-42.118-16.143
				c-12.856-6.309-25.971-12.117-38.904-18.191c-10.405-4.885-18.66-14.184-28.331-20.852c-10.971-7.57-19.766-17.313-27.803-27.557
				c-8.964-11.432-11.823-25.273-10.466-39.709c1.749-18.545,5.979-36.73,7.672-55.34c1.058-11.561,1.563-23.371,4.703-34.766
				c0.98-3.557,0.097-7.475-1.351-11.037"/>
			
				<path fill-rule="evenodd" clip-rule="evenodd" fill="none" stroke="#777777" stroke-width="8" stroke-linecap="round" stroke-linejoin="round" stroke-miterlimit="10" d="
				M736.229,147.35c-2.151,7.945,1.517,15.004,3.791,22.114c6.924,21.645,15.589,42.662,20.876,64.923
				c3.614,15.214,5.518,30.701,9.282,45.843c1.133,4.563,6.277,8.431,10.27,6.488c8.96-4.359,18.959-3.659,28.292-6.72
				c8.095-2.655,16.844-4.551,24.808-7.494c18.29-6.762,36.796-12.673,55.479-18.155c8.435-2.475,16.893-4.988,25.072-8.173
				c11.301-4.4,13.962-10.261,11.895-22.063c-3.893-22.282-10.687-43.65-20.028-64.193c-7.026-15.442-12.469-31.581-20.6-46.537
				c-2.907-5.347-6.098-7.488-13.283-7.857c-25.009-1.292-45.939,9.122-67.25,19.572c-13.271,6.506-27.959,9.095-42.02,13.415
				c-8.404,2.583-16.716,5.476-25.132,8.011c-1.286,0.385-2.925-0.405-4.404-0.651"/>
			
				<path fill-rule="evenodd" clip-rule="evenodd" fill="none" stroke="#777777" stroke-width="8" stroke-linecap="round" stroke-linejoin="round" stroke-miterlimit="10" d="
				M433.565,353.308c4.962-6.821,6.578-14.707,7.404-22.882c0.799-7.912,0.946-16.136,8.606-21.609
				c9.449,5.491,10.688,15.947,14.024,24.648c7.158,18.656,12.973,37.826,19.443,56.748c6.821,19.957,13.09,40.135,20.837,59.729
				c8.335,21.086,16.796,42.109,24.171,63.556c3.469,10.083,7.001,20.143,10.297,30.278c1.61,4.961,3.592,9.611,7.425,13.276"/>
			
				<path fill-rule="evenodd" clip-rule="evenodd" fill="none" stroke="#777777" stroke-width="8" stroke-linecap="round" stroke-linejoin="round" stroke-miterlimit="10" d="
				M491.147,760.056c-0.132,10.453,2.649,19.604,10.997,26.662c2.217,1.879,4.063,4.613,5.161,7.328
				c15.244,37.703,30.773,75.305,44.298,113.674c3.932,11.15,0.505,17.932-10.996,24.336c-6.945,3.865-14.424,4.771-22.141,3.654
				c-7.93-1.148-15.953-1.336-23.693-4.219c-6.026-2.252-8.065-5.797-8.969-11.961c-3.295-22.498-0.848-44.971,1.438-67.145
				c1.76-17.092,0.592-34.021,1.469-51.004c0.381-7.443,2.316-13.42,7.602-18.443"/>
			
				<path fill-rule="evenodd" clip-rule="evenodd" fill="none" stroke="#777777" stroke-width="8" stroke-linecap="round" stroke-linejoin="round" stroke-miterlimit="10" d="
				M355.318,947.556c0.493,4.926,0.604,9.918,1.549,14.754c2.554,13.066,10.627,16.383,21.324,8.855
				c20.815-14.652,20.981-43.578,8.839-61.234c-2.457-3.574-6.286-5.371-10.309-6.656c-13.412-4.271-31.106,5.725-35.57,19.141
				c-3.758,11.293-7.975,22.563-13.312,33.18c-9.204,18.297-12.715,38.17-17.434,57.695c-4.962,20.539-9.451,35.353-13.713,56.054
				c0,0-0.906,5.57-6.536,19.012"/>
			
				<path fill-rule="evenodd" clip-rule="evenodd" fill="none" stroke="#777777" stroke-width="8" stroke-linecap="round" stroke-linejoin="round" stroke-miterlimit="10" d="
				M25.27,735.06c23.408,16.244,46.567,32.83,71.708,46.348c5.662,3.045,11.733,5.268,18.425,4.486"/>
			
				<path fill-rule="evenodd" clip-rule="evenodd" fill="none" stroke="#777777" stroke-width="8" stroke-linecap="round" stroke-linejoin="round" stroke-miterlimit="10" d="
				M1086.872,47.692c-5.658,2.358-7.845,7.551-10.355,12.541c-5.347,10.615-10.718,21.218-16.239,31.743
				c-11.504,21.931-22.684,44.047-34.795,65.638c-11.432,20.377-21.507,41.424-32.319,62.102
				c-4.435,8.479-8.375,17.218-12.604,25.809c-1.85,3.754-3.382,7.521-2.199,11.816"/>
			
				<path fill-rule="evenodd" clip-rule="evenodd" fill="none" stroke="#777777" stroke-width="8" stroke-linecap="round" stroke-linejoin="round" stroke-miterlimit="10" d="
				M461.617,224.123c-3.364-11.937,1.595-23.156,2.896-34.702c1.298-11.532,2.689-23.033,3.227-34.678
				c0.775-16.761,1.441-33.54,3.946-50.25c1.851-12.346,1.019-25.072,1.797-37.604l2.992-30.137V7.288"/>
			
				<path fill-rule="evenodd" clip-rule="evenodd" fill="none" stroke="#777777" stroke-width="8" stroke-linecap="round" stroke-linejoin="round" stroke-miterlimit="10" d="
				M359.746,588.056c-4.785-6.379-4.902-14.563-8.6-21.543c-5.614-10.609-7.902-22.997-17.235-31.608
				c-2.412-14.992-12.934-25.868-20.234-38.21c-11.834-20.02-22.011-41.261-40.154-57.183c-15.659-13.741-27.448-8.022-35.279,4.054
				c-9.969,15.375-16.517,32.284-16.919,51.468c-0.217,10.255-2.791,20.822-3.449,31.054c-0.712,11.08-4.74,21.923-2.839,33.182
				c0.163,0.955,0.304,2.066-0.018,2.932c-6.461,17.396-6.705,35.805-8.819,53.904"/>
			
				<path fill-rule="evenodd" clip-rule="evenodd" fill="none" stroke="#777777" stroke-width="8" stroke-linecap="round" stroke-linejoin="round" stroke-miterlimit="10" d="
				M1007.148,977.827c19.794,9.09,41.385,12.135,62.015,18.432c26.054,7.959,52.223,15.578,78.192,23.801
				c5.474,1.73,10.574,3.557,16.293,2.055"/>
			
				<path fill-rule="evenodd" clip-rule="evenodd" fill="none" stroke="#777777" stroke-width="8" stroke-linecap="round" stroke-linejoin="round" stroke-miterlimit="10" d="
				M373.034,288.346c1.217,3.063,3.656,5.148,5.905,7.383c16.578,16.467,33.161,32.924,47.246,51.674l8.858,17.716
				c0.384,3.919,1.961,6.743,4.974,9.786c8.368,8.464,11.099,20.235,15.577,30.864c7.639,18.118,13.012,36.603,13.917,56.771
				c0.693,15.455,3.265,31.059,2.835,46.518c-0.462,16.724,0.103,33.48-2.944,50.284c-3.208,17.709-6.22,35.275-12.09,52.379
				c-6.422,18.707-15.025,36.285-25.364,53.023c-2.658,4.301-4.77,8.498-4.169,13.359c0.73,5.912-3.652,9.563-6.332,13.066
				c-7.119,9.275-13.502,19.164-21.636,27.742c-2.991,3.154-5.713,5.432-9.801,5.652c-8.053,0.439-11.907,7.443-17.509,11.42
				c-7.086,5.035-14.415,9.648-21.564,14.545c-1.673,1.146-3.259,1.971-5.217,2.145c-6.341,0.559-10.354,4.248-13.325,9.576
				c-1.715,3.082-4.539,5.082-8.086,5.123c-6.822,0.086-12.438,3.744-18.398,6.111c-17.407,6.908-35.204,12.748-53.278,17.283
				c-12.907,3.238-26.501,3.748-39.791,5.455c-7.869,1.01-15.736,2.691-23.624,2.824c-23.441,0.391-46.393-4.127-69.389-7.984"/>
			
				<path fill-rule="evenodd" clip-rule="evenodd" fill="none" stroke="#777777" stroke-width="8" stroke-linecap="round" stroke-linejoin="round" stroke-miterlimit="10" d="
				M957.321,430.818c0.451,9.526-4.511,17.579-7.971,25.747c-15.855,37.415-32.315,74.558-45.747,112.971
				c-1.289,3.688-2.821,7.418-4.248,11.131c-1.006,2.619-1.295,5.105,0.754,7.389"/>
			
				<path fill-rule="evenodd" clip-rule="evenodd" fill="none" stroke="#777777" stroke-width="8" stroke-linecap="round" stroke-linejoin="round" stroke-miterlimit="10" d="
				M978.359,437.833c-6.265,15.298-13.061,30.362-19.812,45.453c-8.375,18.722-15.908,37.822-23.729,56.79
				c-6.152,14.913-9.036,31.101-17.62,45.097c-0.776,1.266-0.595,3.635,0.997,5.094"/>
			
				<path fill-rule="evenodd" clip-rule="evenodd" fill="none" stroke="#777777" stroke-width="8" stroke-linecap="round" stroke-linejoin="round" stroke-miterlimit="10" d="
				M1046.274,347.403c-3.448,0.246-6.98,1.114-10.321,0.624c-11.443-1.679-20.563,5.753-21.909,20.808
				c-1.201,13.423-0.612,27.054-0.168,40.574c0.654,19.696,2.709,39.376,2.631,59.057c-0.065,19.026,3.6,37.273,8.501,55.329
				c4.35,16.028,18.191,19.903,31.605,9.639c0.703-0.538,1.412-1.265,2.217-1.439c10.777-2.365,11.18-10.531,11.114-19.236
				c-0.108-12.793-1.857-25.588-0.067-38.388c0.133-0.964-0.287-2.094,0.067-2.932c5.821-13.973-1.269-26.758-3.888-39.85
				c-1.868-9.324-3.718-18.744-4.019-28.092c-0.577-17.833-6.188-34.08-12.874-50.162c-1.514-3.632-2.072-7.218-2.217-11.096
				c-0.577-15.019-1.58-30.02-2.096-45.035c-0.422-12.105,2.673-23.979,2.366-36.177c-0.264-10.309,1.574-20.654,1.903-31.001
				c0.223-7.11,2.235-11.18,8.225-13.28c15.86-5.557,30.987-12.808,45.664-20.861c5.767-3.163,11.534-5.656,17.823-7.194"/>
			
				<path fill-rule="evenodd" clip-rule="evenodd" fill="none" stroke="#777777" stroke-width="8" stroke-linecap="round" stroke-linejoin="round" stroke-miterlimit="10" d="
				M0,922.945c5.376,16.586,15.589,40.782,19.434,57.831c5.822,25.838,7.852,51.863,4.554,78.266
				c-0.664,5.336-1.063,10.988,1.355,16.227"/>
			
				<path fill-rule="evenodd" clip-rule="evenodd" fill="none" stroke="#777777" stroke-width="8" stroke-linecap="round" stroke-linejoin="round" stroke-miterlimit="10" d="
				M524.879,12.239c-1.433,14.595-1.457,29.038-0.513,43.576"/>
			
				<path fill-rule="evenodd" clip-rule="evenodd" fill="none" stroke="#777777" stroke-width="8" stroke-linecap="round" stroke-linejoin="round" stroke-miterlimit="10" d="
				M1934.949,22.584c-1.532,16.773-3.316,33.558-5.973,50.181c-1.688,10.528-12.813,18.599-24.173,18.371
				c-10.592-0.213-21.225-0.898-31.731-2.22c-13.697-1.721-22.648-11.426-31.75-20.563c-7.797-7.834-16.341-14.73-28.043-13.832
				c-8.916,0.685-17.872,1.727-25.369,8.393c-2.728,2.424-2.746,5.635-4.963,7.611c-11.563,10.303-24.366,18.54-40.538,17.563
				c-8.885-0.535-16.166-6.425-23.573-10.963c-8.141-4.983-15.975-10.513-23.64-16.206c-7.011-5.208-14.316-4.652-21.399-1.294
				c-9.064,4.304-17.842,9.252-25.922,15.346c-5.4,4.076-11.702,6.335-18.431,6.614c-12.634,0.526-16.196-3.433-22.876-16.175
				c-5.941-11.327-8.97-23.432-9.601-36.171"/>
			
				<path fill-rule="evenodd" clip-rule="evenodd" fill="none" stroke="#777777" stroke-width="8" stroke-linecap="round" stroke-linejoin="round" stroke-miterlimit="10" d="
				M1096.473,85.341c-6.163,1.157-8.121,6.576-10.219,11.126c-12.981,28.142-21.897,57.675-28.842,87.809
				c-1.796,7.794-4.565,15.436-4.512,23.606c0.024,3.157-0.102,6.305,2.229,8.858"/>
			
				<path fill-rule="evenodd" clip-rule="evenodd" fill="none" stroke="#777777" stroke-width="8" stroke-linecap="round" stroke-linejoin="round" stroke-miterlimit="10" d="
				M587.85,240.364c-6.942-5.86-13-1.546-18.371,2.331c-10.868,7.849-16.8,18.548-15.538,32.36
				c0.526,5.731-1.547,11.078-1.082,17.007c1.712,21.843,14.785,33.966,33.567,41.178c13.523,5.193,26.617,0.979,38.238-5.933
				c23.516-13.985,27.478-36.988,18.674-60.414c-5.061-13.472-12.682-23.688-26.655-28.863c-9.489-3.512-18.067-1.349-26.577,2.424
				c-3.161,1.403-2.587,7.846-8.161,6.552"/>
			
				<path fill-rule="evenodd" clip-rule="evenodd" fill="none" stroke="#777777" stroke-width="8" stroke-linecap="round" stroke-linejoin="round" stroke-miterlimit="10" d="
				M959.905,277.274c-6.044-0.826-11.492,1.199-16.186,4.509c-14.171,9.994-28.919,19.125-43.157,29.041
				c-15.385,10.717-29.703,23.131-46.275,32.05c-17.857,9.609-33.774,22.204-51.466,32.122
				c-11.408,6.395-21.228,15.593-31.924,23.306c-10.462,7.548-21.12,14.824-31.725,22.167c-2.638,1.827-5.945,2.98-8,5.284
				c-4.367,4.894-9.777,5.354-15.613,5.067"/>
			
				<path fill-rule="evenodd" clip-rule="evenodd" fill="none" stroke="#777777" stroke-width="8" stroke-linecap="round" stroke-linejoin="round" stroke-miterlimit="10" d="
				M543.559,565.173c-5.073,0.824-8.014,3.953-11.282,7.949c-9.248,11.313-18.912,22.414-29.463,32.5
				c-13.192,12.615-24.709,26.57-35.985,40.783c-7.605,9.59-14.655,19.58-23.567,28.123c-4.346,4.17-8.861,6.727-14.862,6.541"/>
			
				<path fill-rule="evenodd" clip-rule="evenodd" fill="none" stroke="#777777" stroke-width="8" stroke-linecap="round" stroke-linejoin="round" stroke-miterlimit="10" d="
				M1365.914,535.645c4.356,2.754,5.972,6.727,7.684,11.705c7.589,22.095,11.745,45.104,18.9,67.278
				c4.372,13.553,8.951,27.039,13.24,40.617c2.589,8.188-0.234,11.082-8.819,9.592c-15.746-2.732-31.498-5.424-47.249-8.127"/>
			
				<path fill-rule="evenodd" clip-rule="evenodd" fill="none" stroke="#777777" stroke-width="8" stroke-linecap="round" stroke-linejoin="round" stroke-miterlimit="10" d="
				M116.878,303.109c2.337,0,4.677,0,6.78,0c3.872,25.949,5.893,52.148,13.103,77.527c5.842,20.563,9.14,41.674,12.538,62.742
				c0.33,2.057,1.159,2.901,2.971,3.772c2.871,1.379,5.458,3.352,8.164,5.077"/>
			
				<path fill-rule="evenodd" clip-rule="evenodd" fill="none" stroke="#777777" stroke-width="8" stroke-linecap="round" stroke-linejoin="round" stroke-miterlimit="10" d="
				M1087.497,21.244c1.437,1.328,0.776,4.115,0.308,6.554c-1.16,6.026-1.328,12.709-0.337,18.314
				c1.038,5.881,6.789,10.931,10.477,16.343"/>
			
				<path fill-rule="evenodd" clip-rule="evenodd" fill="none" stroke="#777777" stroke-width="8" stroke-linecap="round" stroke-linejoin="round" stroke-miterlimit="10" d="
				M1088.352,21.857c3.784-3.314,6.95-6.668,9.071-11.724"/>
			
				<path fill-rule="evenodd" clip-rule="evenodd" fill="none" stroke="#777777" stroke-width="8" stroke-linecap="round" stroke-linejoin="round" stroke-miterlimit="10" d="
				M867.627,922.462c21.465,18.588,47.553,27.941,73.829,36.887c8.32,2.836,16.857,5.094,25.039,8.271
				c4.674,1.814,9.275,2.139,14.075,2.086"/>
			
				<path fill-rule="evenodd" clip-rule="evenodd" fill="none" stroke="#777777" stroke-width="8" stroke-linecap="round" stroke-linejoin="round" stroke-miterlimit="10" d="
				M1188.748,930.579c0.486,2.463,0.438,5.209,1.567,7.336c4.975,9.357,10.189,10.078,19.915,4.605
				c6.902-3.879,11.828-9.412,16.106-15.674c4.716-6.912,3.964-14.23-1.418-19.152c-5.286-4.834-14.58-5.092-20.685-0.756
				c-8.037,5.719-12.831,13.576-15.486,22.9"/>
			
				<path fill-rule="evenodd" clip-rule="evenodd" fill="none" stroke="#777777" stroke-width="8" stroke-linecap="round" stroke-linejoin="round" stroke-miterlimit="10" d="
				M39.37,535.645c-9.459,21.384-19.139,54.729-33.01,73.635"/>
			
				<path fill-rule="evenodd" clip-rule="evenodd" fill="none" stroke="#777777" stroke-width="8" stroke-linecap="round" stroke-linejoin="round" stroke-miterlimit="10" d="
				M6.359,609.279c-9.459,21.384-27.046,35.218-40.917,54.124"/>
			
				<path fill-rule="evenodd" clip-rule="evenodd" fill="none" stroke="#777777" stroke-width="8" stroke-linecap="round" stroke-linejoin="round" stroke-miterlimit="10" d="
				M1919.413,609.279c-9.459,21.384-27.046,35.218-40.917,54.124"/>
			
				<path fill-rule="evenodd" clip-rule="evenodd" fill="none" stroke="#777777" stroke-width="8" stroke-linecap="round" stroke-linejoin="round" stroke-miterlimit="10" d="
				M1624.272,1060.509c-9.618-21.045-17.218-42.941-27.803-63.613c-4.632-9.055-7.906-19.02-11.06-28.752
				c-3.4-10.506-8.284-20.258-12.916-30.127c-8.278-17.65-17.482-34.85-24.343-53.166c-3.124-8.34-7.106-16.365-11.018-24.381
				c-4.95-10.121-8.272-20.893-13.061-31.111c-6.403-13.672-12.315-27.701-16.936-42.064c-4.673-14.508-11.666-27.928-17.319-41.957
				c-1.958-4.854-4.914-9.359-7.442-13.979c-4.428-8.086-6.873-8.902-20.45-5.094c-10.08,2.834-19.734,7.215-29.574,10.908"/>
			
				<path fill-rule="evenodd" clip-rule="evenodd" fill="none" stroke="#777777" stroke-width="8" stroke-linecap="round" stroke-linejoin="round" stroke-miterlimit="10" d="
				M658.717,188.691c6.302-0.911,9.897,2.839,13.328,7.35c9.233,12.144,18.731,24.09,27.995,36.216
				c9.844,12.886,15.31,27.589,17.78,43.533c0.69,4.473,1.922,8.864,2.907,13.295"/>
			
				<path fill-rule="evenodd" clip-rule="evenodd" fill="none" stroke="#777777" stroke-width="8" stroke-linecap="round" stroke-linejoin="round" stroke-miterlimit="10" d="
				M470.491,1034.61c1.471,11.678,4.758,42.128,5.983,53.745"/>
			
				<path fill-rule="evenodd" clip-rule="evenodd" fill="none" stroke="#777777" stroke-width="8" stroke-linecap="round" stroke-linejoin="round" stroke-miterlimit="10" d="
				M1406.513,664.087c7.077,4.555,5.089,12.916,7.924,19.285c6.284,14.115,9.042,29.447,13.223,44.273
				c1.034,3.652,4.056,6.344,3.959,10.67c-25.742,11.631-51.55,23.506-77.568,34.916c-7.462,3.273-14.22,8.566-22.835,8.969"/>
			
				<path fill-rule="evenodd" clip-rule="evenodd" fill="none" stroke="#777777" stroke-width="8" stroke-linecap="round" stroke-linejoin="round" stroke-miterlimit="10" d="
				M938.494,435.248c-4.566,9.005-6.752,18.893-10.832,28.16c-10.801,24.538-20.488,49.57-30.476,74.462
				c-4.61,11.492-9.254,22.997-13.12,34.747c-1.376,4.176-3.36,4.783-6.843,4.369"/>
			
				<path fill-rule="evenodd" clip-rule="evenodd" fill="none" stroke="#777777" stroke-width="8" stroke-linecap="round" stroke-linejoin="round" stroke-miterlimit="10" d="
				M869.844,729.792c9.808,1.74,16.947,8.561,24.171,14.26c17.188,13.559,33.943,27.834,44.552,47.711
				c1.201,2.248,3.394,3.961,5.089,5.947c1.021,1.197,3.033,2.723,2.799,3.648c-2.985,11.799,7.216,18.971,9.984,28.764
				c2.721,9.592,5.305,19.223,8.044,28.813c4.788,16.771,9.126,33.479,11.378,50.918c1.328,10.309,1.514,20.973,4.71,31.064"/>
			
				<path fill-rule="evenodd" clip-rule="evenodd" fill="none" stroke="#777777" stroke-width="8" stroke-linecap="round" stroke-linejoin="round" stroke-miterlimit="10" d="
				M122.048,1019.903c-9.351,2.176-16.428,8.639-24.25,13.469c-21.486,13.252-42.236,27.707-63.751,40.906
				c-4.917,3.021-10.943,3.777-14.031,9.768"/>
			
				<path fill-rule="evenodd" clip-rule="evenodd" fill="none" stroke="#777777" stroke-width="8" stroke-linecap="round" stroke-linejoin="round" stroke-miterlimit="10" d="
				M1692.199,255.497c-5.521,1.352-4.602,6.257-5.082,9.976c-2.795,21.678-4.645,43.452-8.646,65.006
				c-1.484,8.018-0.931,16.404-3.874,24.346c-1.454,3.923,4.162,6.726,2.834,11.033"/>
			
				<path fill-rule="evenodd" clip-rule="evenodd" fill="none" stroke="#777777" stroke-width="8" stroke-linecap="round" stroke-linejoin="round" stroke-miterlimit="10" d="
				M333.172,534.904c-20.669,5.168-41.308,10.469-62.019,15.461c-16.19,3.897-32.458,7.485-48.729,11.03
				c-1.83,0.395-3.92-0.41-5.887-0.654"/>
			
				<path fill-rule="evenodd" clip-rule="evenodd" fill="none" stroke="#777777" stroke-width="8" stroke-linecap="round" stroke-linejoin="round" stroke-miterlimit="10" d="
				M1370.948,65.396c-0.57,5.505-2.841,10.834-4.289,16.256c-1.117,4.19-3.208,6.975-8.128,5.902"/>
			
				<path fill-rule="evenodd" clip-rule="evenodd" fill="none" stroke="#777777" stroke-width="8" stroke-linecap="round" stroke-linejoin="round" stroke-miterlimit="10" d="
				M127.214,331.161c-19.326,3.535-37.69,9.849-55.419,18.344c-8.05,3.856-16.481,7.329-25.117,9.411
				c-5.452,1.312-9.278,6.161-15.448,5.686c-2.355-0.183-4.902,0.952-7.362-0.222"/>
			
				<path fill-rule="evenodd" clip-rule="evenodd" fill="none" stroke="#777777" stroke-width="8" stroke-linecap="round" stroke-linejoin="round" stroke-miterlimit="10" d="
				M1261.09,8.542c3.25,0.261,6.464-0.15,9.624,1.451c15.782,7.983,33.306,7.302,50.193,9.461
				c8.908,1.141,17.024,5.169,25.825,5.974c10.736,0.985,21.225,3.094,31.731,5.287"/>
			
				<path fill-rule="evenodd" clip-rule="evenodd" fill="none" stroke="#777777" stroke-width="8" stroke-linecap="round" stroke-linejoin="round" stroke-miterlimit="10" d="
				M750.256,749.724c-11.673,6.818-18.783,18.707-29.505,26.607c-4.905,3.617-9.963,5.959-16.242,6.787
				c-15.403,2.025-21.558-7.684-26.598-19.373"/>
			
				<path fill-rule="evenodd" clip-rule="evenodd" fill="none" stroke="#777777" stroke-width="8" stroke-linecap="round" stroke-linejoin="round" stroke-miterlimit="10" d="
				M666.839,768.179c4.65-2.883,11.829-2.541,12.703-10.32c0.123-1.105,2.181-2.23,3.556-2.926
				c9.338-4.746,13.325-14.172,11.015-25.137c-1.048-4.961-6.356-6.752-10.297-3.699c-7.446,5.777-9.482,22.461-3.691,30.266"/>
			
				<path fill-rule="evenodd" clip-rule="evenodd" fill="none" stroke="#777777" stroke-width="8" stroke-linecap="round" stroke-linejoin="round" stroke-miterlimit="10" d="
				M1742.397,248.114c-3.125,1.298-4.019,3.767-4.542,6.996c-1.004,6.236-0.396,12.703-4.061,18.632
				c-1.544,2.493,0.234,6.815-0.349,10.159c-1.677,9.603-4.229,19.041-5.119,28.803c-0.786,8.629-2.654,17.226-2.673,25.841
				c-0.018,6.536-1.916,10.12-8.356,11.071"/>
			
				<path fill-rule="evenodd" clip-rule="evenodd" fill="none" stroke="#777777" stroke-width="8" stroke-linecap="round" stroke-linejoin="round" stroke-miterlimit="10" d="
				M1240.791,755.628c2.883-15.377,3.761-30.885,3.364-46.51c-0.18-7.166-1.725-14.176-1.712-21.404
				c0.011-5.658-9.576-12.736-16.047-13.318c-12.646-1.146-24.547,1.004-34.592,9.018c-4.343,3.461-9.834,3.166-14.272,6.314
				c-4.067,2.883-5.671,6.037-4.968,10.523c0.689,4.428,4.703,4.971,8.073,5.863c4.127,1.094,7.972,1.947,12.64,0.344
				c5.25-1.803,10.945,0.475,16.136,2.66"/>
			
				<path fill-rule="evenodd" clip-rule="evenodd" fill="none" stroke="#777777" stroke-width="8" stroke-linecap="round" stroke-linejoin="round" stroke-miterlimit="10" d="
				M926.449,8.433c-9.485,16.797-22.517,31.215-32.873,47.45c-2.168,3.4-5.358,5.13-8.296,7.221
				c-5.581,3.965-10.991,1.769-12.402-5.095c-1.716-8.335-3.74-16.58,2.721-24.465c4.936-6.025,8.368-13.264,12.781-19.752
				c1.508-2.216,3.357-4.623,6.563-4.854"/>
			
				<path fill-rule="evenodd" clip-rule="evenodd" fill="none" stroke="#777777" stroke-width="8" stroke-linecap="round" stroke-linejoin="round" stroke-miterlimit="10" d="
				M1667.1,695.091c2.637-9.287,5.311-18.719,14.058-24.305c17.276-11.025,42.364-13.578,52.451,13.209
				c5.851,15.543,9.216,31.328,8.152,48.018c-0.229,3.643,0.685,7.414,1.411,11.055c1.424,7.119,0.396,14.285,0.631,21.422
				c0.686,20.414,1.172,40.84,1.484,61.271c0.12,7.863-0.434,15.744-0.68,23.615"/>
			
				<path fill-rule="evenodd" clip-rule="evenodd" fill="none" stroke="#777777" stroke-width="8" stroke-linecap="round" stroke-linejoin="round" stroke-miterlimit="10" d="
				M37.153,364.379c5.511,7.317,3.358,16.274,4.958,24.403c2.731,13.877,3.479,28.147,6.326,41.992
				c2.271,11.042,1.896,22.393,4.944,33.267c2.078,7.426,3.247,15.118,6.656,22.144"/>
			
				<path fill-rule="evenodd" clip-rule="evenodd" fill="none" stroke="#777777" stroke-width="8" stroke-linecap="round" stroke-linejoin="round" stroke-miterlimit="10" d="
				M714.821,289.085c1.724,0,3.445,0,5.374,0c2.77,15.7,6.098,31.326,8.2,47.207c0.543,4.121-1.526,7.26-1.183,11.126
				c0.58,6.59-0.199,13.294,0.228,19.912c1.168,18.091-9.386,33.539-11.192,50.934c-0.105,1.024-1.514,2.094-1.34,2.941
				c2.16,10.495-5.581,17.097-9.684,25.117"/>
			
				<path fill-rule="evenodd" clip-rule="evenodd" fill="none" stroke="#777777" stroke-width="8" stroke-linecap="round" stroke-linejoin="round" stroke-miterlimit="10" d="
				M1074.323,463.298c8.831,3.235,12.441,11.521,16.809,18.564c9.155,14.76,21.356,26.847,32.651,39.753"/>
			
				<path fill-rule="evenodd" clip-rule="evenodd" fill="none" stroke="#777777" stroke-width="8" stroke-linecap="round" stroke-linejoin="round" stroke-miterlimit="10" d="
				M1195.392,146.981c-10.729,0.081-17.361,8.396-25.777,13.024c-12.754,7.011-24.282,16.145-37.709,22.044
				c-2.866,1.259-5.54,3.073-8.862,2.95"/>
			
				<path fill-rule="evenodd" clip-rule="evenodd" fill="none" stroke="#777777" stroke-width="8" stroke-linecap="round" stroke-linejoin="round" stroke-miterlimit="10" d="
				M643.999,7.835c-0.883,9.078,0.904,18.143,0.354,27.334c-0.3,4.962-1.889,9.323-2.67,13.988c-0.37,2.21-2.397,2.421-4.319,3.109
				c-3.451,1.231-6.879,1.265-10.387,1.339c-22.393,0.478-44.834,0.261-67.158,1.764c-11.594,0.778-23.06,2.823-34.714,1.18"/>
			
				<path fill-rule="evenodd" clip-rule="evenodd" fill="none" stroke="#777777" stroke-width="8" stroke-linecap="round" stroke-linejoin="round" stroke-miterlimit="10" d="
				M836.382,49.176c0.069,2.412,0.207,5.043,0.489,7.344c0.409,3.334,2.419,6.626,6.401,7.38c3.646,0.694,5.449-1.739,7.443-4.347
				c5.043-6.599,8.468-15.16,18.39-16.289"/>
			
				<path fill-rule="evenodd" clip-rule="evenodd" fill="none" stroke="#777777" stroke-width="8" stroke-linecap="round" stroke-linejoin="round" stroke-miterlimit="10" d="
				M809.31,692.142c12.2,3.455,22.141,11.342,33.275,16.869c8.314,4.121,14.686,11.715,24.307,13.396"/>
			
				<path fill-rule="evenodd" clip-rule="evenodd" fill="none" stroke="#777777" stroke-width="8" stroke-linecap="round" stroke-linejoin="round" stroke-miterlimit="10" d="
				M1368.125,509.067c-2.667,8.293-5.34,16.587-2.962,25.472c0.091,0.344,0.156,0.832-0.012,1.09
				c-8.639,13.33-7.941,28.903-9.077,43.608c-0.727,9.443-0.204,19.23-1.364,28.734c-1.874,15.33-2.24,30.938-7.251,45.781"/>
			
				<path fill-rule="evenodd" clip-rule="evenodd" fill="none" stroke="#777777" stroke-width="8" stroke-linecap="round" stroke-linejoin="round" stroke-miterlimit="10" d="
				M1241.156,698.046c-10.362,0.234-19.163,5.09-28.03,9.639c-3.208,1.645-3.628,6.09-6.056,7.91
				c-15.403,11.547-31.124,22.721-50.805,26.006c-2.283,0.379-4.175-0.473-5.905-1.844"/>
			
				<path fill-rule="evenodd" clip-rule="evenodd" fill="none" stroke="#777777" stroke-width="8" stroke-linecap="round" stroke-linejoin="round" stroke-miterlimit="10" d="
				M1134.854,536.379c12.058,10.826,24.198,21.573,36.136,32.524c4.577,4.205,9.563,7.762,14.802,11.031"/>
			
				<path fill-rule="evenodd" clip-rule="evenodd" fill="none" stroke="#777777" stroke-width="8" stroke-linecap="round" stroke-linejoin="round" stroke-miterlimit="10" d="
				M328.005,767.44c2.865,7.82-1.938,14.068-4.53,20.629c-3.274,8.285-7.365,16.244-10.91,24.426
				c-0.766,1.779-1.709,3.91-0.063,5.875"/>
			
				<path fill-rule="evenodd" clip-rule="evenodd" fill="none" stroke="#777777" stroke-width="8" stroke-linecap="round" stroke-linejoin="round" stroke-miterlimit="10" d="
				M1688.504,272.843c5.419,0.998,10.82,0.244,16.245,0.168c9.095-0.126,18.208,0.817,27.31,1.31"/>
			
				<path fill-rule="evenodd" clip-rule="evenodd" fill="none" stroke="#777777" stroke-width="8" stroke-linecap="round" stroke-linejoin="round" stroke-miterlimit="10" d="
				M336.312,1050.332c-0.373,10.682,6.178,27.629,7.548,38.023"/>
			
				<path fill-rule="evenodd" clip-rule="evenodd" fill="none" stroke="#777777" stroke-width="8" stroke-linecap="round" stroke-linejoin="round" stroke-miterlimit="10" d="
				M31.248,325.995c2.953,11.564,5.906,23.131,8.858,34.696"/>
			
				<path fill-rule="evenodd" clip-rule="evenodd" fill="none" stroke="#777777" stroke-width="8" stroke-linecap="round" stroke-linejoin="round" stroke-miterlimit="10" d="
				M1664.882,695.091c4.776,1.563,4.825,6.332,4.897,9.607c0.155,6.871-0.56,13.918-2.092,20.629
				c-2.313,10.104-3.784,19.986-1.484,30.332c0.83,3.73-0.533,7.977-0.359,11.768c1.285,27.805-2.469,55.721,1.995,83.426"/>
			
				<path fill-rule="evenodd" clip-rule="evenodd" fill="none" stroke="#777777" stroke-width="8" stroke-linecap="round" stroke-linejoin="round" stroke-miterlimit="10" d="
				M979.832,943.866c0.035,8.393,1.387,16.713,1.903,25.076c0.403,6.578,6.297,11.691,11.385,16.262"/>
			
				<path fill-rule="evenodd" clip-rule="evenodd" fill="none" stroke="#777777" stroke-width="8" stroke-linecap="round" stroke-linejoin="round" stroke-miterlimit="10" d="
				M140.502,329.687c-3.938,0.247-7.875,0.489-11.81,0.736"/>
			
				<path fill-rule="evenodd" clip-rule="evenodd" fill="none" stroke="#777777" stroke-width="8" stroke-linecap="round" stroke-linejoin="round" stroke-miterlimit="10" d="
				M1737.225,269.891c3.695,0.246,7.383,0.493,11.077,0.739"/>
			
				<path fill-rule="evenodd" clip-rule="evenodd" fill="none" stroke="#777777" stroke-width="8" stroke-linecap="round" stroke-linejoin="round" stroke-miterlimit="10" d="
				M1086.135,888.503c-3.317-0.602-5.877-3.66-9.595-2.949"/>
			
				<path fill-rule="evenodd" clip-rule="evenodd" fill="none" stroke="#777777" stroke-width="8" stroke-linecap="round" stroke-linejoin="round" stroke-miterlimit="10" d="
				M1736.492,763.005c1.627,3.119,4.463,0.811,6.638,1.48"/>
			
				<path fill-rule="evenodd" clip-rule="evenodd" fill="none" stroke="#777777" stroke-width="8" stroke-linecap="round" stroke-linejoin="round" stroke-miterlimit="10" d="
				M555.37,154.73c-0.246,2.217-0.493,4.43-0.739,6.644"/>
			
				<path fill-rule="evenodd" clip-rule="evenodd" fill="none" stroke="#777777" stroke-width="8" stroke-linecap="round" stroke-linejoin="round" stroke-miterlimit="10" d="
				M1659.717,798.444c0.912,3.543,3.832,1.748,5.905,2.211"/>
		</g>
		
			<path fill-rule="evenodd" clip-rule="evenodd" fill="none" stroke="#777777" stroke-width="8" stroke-linecap="round" stroke-linejoin="round" stroke-miterlimit="10" d="
			M644.34,1081.352c1.432-14.595,1.456-29.037,0.513-43.575"/>
		
			<path fill-rule="evenodd" clip-rule="evenodd" fill="none" stroke="#777777" stroke-width="8" stroke-linecap="round" stroke-linejoin="round" stroke-miterlimit="10" d="
			M525.219,1085.756c0.884-9.078-0.903-18.143-0.354-27.335c0.301-4.962,1.889-9.323,2.67-13.988c0.37-2.21,2.397-2.421,4.32-3.108
			c3.451-1.232,6.879-1.266,10.387-1.34c22.393-0.479,44.834-0.262,67.157-1.764c11.595-0.777,23.06-2.823,34.714-1.18"/>
		
			<line fill-rule="evenodd" clip-rule="evenodd" fill="none" stroke="#777777" stroke-width="8" stroke-linecap="round" stroke-linejoin="round" stroke-miterlimit="10" x1="0" y1="922.945" x2="-28.307" y2="852.945"/>
		
			<line fill-rule="evenodd" clip-rule="evenodd" fill="none" stroke="#777777" stroke-width="8" stroke-linecap="round" stroke-linejoin="round" stroke-miterlimit="10" x1="1919.414" y1="922.945" x2="1891.106" y2="852.945"/>
		
			<path fill-rule="evenodd" clip-rule="evenodd" fill="none" stroke="#777777" stroke-width="8" stroke-linecap="round" stroke-linejoin="round" stroke-miterlimit="10" d="
			M133.026,3.216c0,0,1.513,24.591,1.571,26.59c0.332,11.435,11.873,30.388,11.873,30.388"/>
		
			<polyline fill-rule="evenodd" clip-rule="evenodd" fill="none" stroke="#777777" stroke-width="8" stroke-linecap="round" stroke-linejoin="round" stroke-miterlimit="10" points="
			23.313,-1 6.359,17.264 0,26.195 -1.22,29.806 		"/>
	</g>
	<g>
		
			<path fill-rule="evenodd" clip-rule="evenodd" fill="none" stroke="#777777" stroke-width="8" stroke-linecap="round" stroke-linejoin="round" stroke-miterlimit="10" d="
			M525.225,1077.975c-1.433,14.595-1.457,29.037-0.514,43.575"/>
		
			<path fill-rule="evenodd" clip-rule="evenodd" fill="none" stroke="#777777" stroke-width="8" stroke-linecap="round" stroke-linejoin="round" stroke-miterlimit="10" d="
			M644.345,1073.57c-0.884,9.078,0.903,18.143,0.354,27.335"/>
		<g>
			
				<path fill-rule="evenodd" clip-rule="evenodd" fill="none" stroke="#777777" stroke-width="8" stroke-linecap="round" stroke-linejoin="round" stroke-miterlimit="10" d="
				M724.018,1079.309c0.574,3.016,15.806,25.748,14.355,28.705"/>
		</g>
		
			<path fill-rule="evenodd" clip-rule="evenodd" fill="none" stroke="#777777" stroke-width="8" stroke-linecap="round" stroke-linejoin="round" stroke-miterlimit="10" d="
			M133.026,1083.524c0,0,1.513,24.591,1.571,26.591c0.332,11.435,11.873,30.387,11.873,30.387"/>
		
			<polyline fill-rule="evenodd" clip-rule="evenodd" fill="none" stroke="#777777" stroke-width="8" stroke-linecap="round" stroke-linejoin="round" stroke-miterlimit="10" points="
			23.313,1079.309 6.359,1097.572 0,1106.504 -1.22,1110.115 		"/>
	</g>
	<g>
		<g>
			
				<path fill-rule="evenodd" clip-rule="evenodd" fill="none" stroke="#777777" stroke-width="8" stroke-linecap="round" stroke-linejoin="round" stroke-miterlimit="10" d="
				M1368.888,0.768c-18.575-5.432-37.331-10.098-56.074-14.887c-37.816-9.666-75.34-20.498-113-30.783
				c-7.239-1.975-14.052-6.732-21.771-3.59c-5.437-1.828-7.448-7.811-12.897-9.061c-0.631-0.145-1.273-1.34-1.46-2.145
				c-3.718-16.377-15.024-28.463-23.633-42.084c-10.688-16.91-21.165-33.959-31.78-50.912c-5.105-8.158-10.314-16.256-15.506-24.361
				c-0.66-1.033-1.724-1.873-2.162-2.979c-5.238-13.277-6.854-14.67,7.443-19.627c27.959-9.701,56.055-19.098,83.239-30.734
				c36.237-15.51,71.838-32.512,107.913-48.414c11.012-4.854,22.102-9.725,33.863-12.809c3.389-0.889,5.407-4.33,7.228-6.975
				c-3.16-8.746-0.481-17.193,1.087-25.346c6.296-32.656,14.399-64.988,17.513-98.209c0.114-1.203,0.66-2.68-0.45-3.52
				c-20.931-7.313-42.967-10.49-62.887-19.586c-25.315-11.547-51.07-22.377-74.649-37.439c-7.942-5.068-15.763-10.32-23.634-15.486"
				/>
			
				<path fill-rule="evenodd" clip-rule="evenodd" fill="none" stroke="#777777" stroke-width="8" stroke-linecap="round" stroke-linejoin="round" stroke-miterlimit="10" d="
				M806.356-393.354c-15.061-3.473-27.541-11.938-39.854-20.684c-26.676-18.947-46.267-44.137-61.808-72.443
				c-6.376-11.625-8.666-24.787-10.099-38.244c-2.006-18.825-0.354-37.44,0.394-56.128c0.391-9.828,3.269-19.32,5.828-28.787
				c1.604-5.939,3.523-11.795,5.118-17.731c1.703-6.341-1.066-9.122-7.347-7.342c-5.86,1.661-10.567,5.499-15.493,8.849
				c-14.967,10.168-28.704,21.946-43.023,32.947c-17.665,13.578-36.672,25.42-55.196,37.863c-8.329,5.6-14.61,13.508-22.729,19.414
				c-4.509,3.273-8.57,7.348-13.478,10.044c-4.544,2.498-5.236,7.348-4.1,10.332c7.443,19.627,11.489,40.334,19.064,59.848
				c7.642,19.682,15.563,39.248,22.784,59.09c4.688,12.885,10.892,25.314,14.469,38.471c5.508,20.264,14.682,39.242,19.54,59.701
				c7.073,29.799,19.142,58.129,26.507,87.867c3.542,14.309,7.101,28.619,11.111,42.803c4.893,17.303,10.477,34.41,15.373,51.707
				c4.245,14.994,16.942,46.678,24.276,61.258c0.574,3.016,42.131,73.19,40.68,76.147"/>
			
				<path fill-rule="evenodd" clip-rule="evenodd" fill="none" stroke="#777777" stroke-width="8" stroke-linecap="round" stroke-linejoin="round" stroke-miterlimit="10" d="
				M395.181-356.443c0.246,1.965,0.832,3.965,0.679,5.9c-0.583,7.25-5.909,12.066-9.57,17.697
				c-11.724,18.023-23.132,36.273-35.507,53.84c-19.569,27.777-42.371,53.039-64.406,78.811
				c-13.958,16.33-30.458,30.543-46.275,45.219c-26.979,25.027-55.299,48.492-85.673,69.309
				c-8.524,5.838-15.135,14.701-26.43,16.646c-3.644,0.631-5.311,5.449-4.367,9.305c2.259,9.264,2.024,18.715,2.814,28.08
				l6.581,34.785v4.14"/>
			
				<path fill-rule="evenodd" clip-rule="evenodd" fill="none" stroke="#777777" stroke-width="8" stroke-linecap="round" stroke-linejoin="round" stroke-miterlimit="10" d="
				M355.318-133.512c0.493,4.926,0.604,9.918,1.549,14.754c2.554,13.066,10.627,16.383,21.324,8.855
				c20.815-14.652,20.981-43.578,8.839-61.234c-2.457-3.574-6.286-5.371-10.309-6.656c-13.412-4.271-31.106,5.725-35.57,19.141
				c-3.758,11.293-7.975,22.563-13.312,33.18c-9.204,18.297-12.715,38.17-17.434,57.695c-4.962,20.539-9.451,35.353-13.713,56.054
				c0,0-0.906,5.57-6.536,19.012"/>
			
				<path fill-rule="evenodd" clip-rule="evenodd" fill="none" stroke="#777777" stroke-width="8" stroke-linecap="round" stroke-linejoin="round" stroke-miterlimit="10" d="
				M470.491-46.457c1.471,11.678,4.758,42.128,5.983,53.745"/>
			
				<path fill-rule="evenodd" clip-rule="evenodd" fill="none" stroke="#777777" stroke-width="8" stroke-linecap="round" stroke-linejoin="round" stroke-miterlimit="10" d="
				M122.048-61.164c-9.351,2.176-16.428,8.639-24.25,13.469C76.313-34.443,55.563-19.988,34.047-6.789
				C29.13-3.768,23.104-3.012,20.017,2.979"/>
			
				<path fill-rule="evenodd" clip-rule="evenodd" fill="none" stroke="#777777" stroke-width="8" stroke-linecap="round" stroke-linejoin="round" stroke-miterlimit="10" d="
				M17.223,6.75"/>
			
				<path fill-rule="evenodd" clip-rule="evenodd" fill="none" stroke="#777777" stroke-width="8" stroke-linecap="round" stroke-linejoin="round" stroke-miterlimit="10" d="
				M336.312-30.735c-0.373,10.682,6.178,27.629,7.548,38.023"/>
		</g>
		
			<path fill-rule="evenodd" clip-rule="evenodd" fill="none" stroke="#777777" stroke-width="8" stroke-linecap="round" stroke-linejoin="round" stroke-miterlimit="10" d="
			M644.34,0.284c1.432-14.595,1.456-29.037,0.513-43.575"/>
		
			<path fill-rule="evenodd" clip-rule="evenodd" fill="none" stroke="#777777" stroke-width="8" stroke-linecap="round" stroke-linejoin="round" stroke-miterlimit="10" d="
			M525.219,4.688c0.884-9.078-0.903-18.143-0.354-27.335c0.301-4.962,1.889-9.323,2.67-13.988c0.37-2.21,2.397-2.421,4.32-3.108
			c3.451-1.232,6.879-1.266,10.387-1.34c22.393-0.479,44.834-0.262,67.157-1.764c11.595-0.777,23.06-2.823,34.714-1.18"/>
	</g>
	<g>
		<g>
			
				<path fill-rule="evenodd" clip-rule="evenodd" fill="none" stroke="#777777" stroke-width="8" stroke-linecap="round" stroke-linejoin="round" stroke-miterlimit="10" d="
				M2286.25,287.174c-4.361-7.689-12.264-11.457-19.367-15.169c-8.685-4.542-16.395-10.435-24.877-15.181
				c-21.144-11.835-43.213-21.24-67.251-24.848c-12.898-1.937-26.048-2.303-39.103-3.078c-15.49-0.922-30.999-2.037-46.502-2.084
				c-11.206-0.033-22.365,1.209-33.266,4.855c-15.568,5.209-31.516,9.279-47.183,14.218c-18.827,5.935-37.392,7.647-60.246,14.86
				c-12.201,6.115-17.776,4.127-29.091,11.895"/>
			
				<path fill-rule="evenodd" clip-rule="evenodd" fill="none" stroke="#777777" stroke-width="8" stroke-linecap="round" stroke-linejoin="round" stroke-miterlimit="10" d="
				M1920.597,923.248c5.376,16.586,15.589,40.782,19.434,57.831c5.821,25.838,7.853,51.863,4.554,78.266
				c-0.664,5.336-1.063,10.988,1.355,16.227"/>
			
				<path fill-rule="evenodd" clip-rule="evenodd" fill="none" stroke="#777777" stroke-width="8" stroke-linecap="round" stroke-linejoin="round" stroke-miterlimit="10" d="
				M1919.365,534.469"/>
			
				<path fill-rule="evenodd" clip-rule="evenodd" fill="none" stroke="#777777" stroke-width="8" stroke-linecap="round" stroke-linejoin="round" stroke-miterlimit="10" d="
				M1879.995,601.598"/>
			
				<path fill-rule="evenodd" clip-rule="evenodd" fill="none" stroke="#777777" stroke-width="8" stroke-linecap="round" stroke-linejoin="round" stroke-miterlimit="10" d="
				M1926.956,609.582c-9.459,21.384-27.046,35.218-40.917,54.124"/>
		</g>
		
			<line fill-rule="evenodd" clip-rule="evenodd" fill="none" stroke="#777777" stroke-width="8" stroke-linecap="round" stroke-linejoin="round" stroke-miterlimit="10" x1="1920.597" y1="923.248" x2="1892.289" y2="853.248"/>
		
			<polyline fill-rule="evenodd" clip-rule="evenodd" fill="none" stroke="#777777" stroke-width="8" stroke-linecap="round" stroke-linejoin="round" stroke-miterlimit="10" points="
			1943.91,-0.697 1926.956,17.566 1920.597,26.498 1919.377,30.109 		"/>
	</g>
	<g>
		<g>
			
				<path fill-rule="evenodd" clip-rule="evenodd" fill="none" stroke="#777777" stroke-width="8" stroke-linecap="round" stroke-linejoin="round" stroke-miterlimit="10" d="
				M18.313,262.735c-8.52,23.006-15.008,46.601-20.889,70.282c-5.124,20.613-13.348,40.237-17.536,61.143
				c-3.195,15.995-8.663,31.534-13.024,47.301c-5.046,18.248-12.562,35.656-17.871,53.842c-7.864,26.945-14.49,54.211-22.024,81.239
				c-9.269,33.24-18.082,66.631-28.229,99.605c-7.888,25.639-17.733,50.672-26.324,76.107c-9.113,26.986-17.62,54.17-26.704,81.162
				c-4.012,11.947-9.16,23.518-13.119,35.492c-4.83,14.627-8.88,29.514-13.409,44.25c-2.812,9.143-5.347,18.438-8.951,27.273
				c-6.091,14.918-9.816,30.549-14.447,45.873c-6.939,22.98-16.42,44.906-25.137,67.182"/>
			
				<path fill-rule="evenodd" clip-rule="evenodd" fill="none" stroke="#777777" stroke-width="8" stroke-linecap="round" stroke-linejoin="round" stroke-miterlimit="10" d="
				M16.191,22.887c-1.532,16.773-3.316,33.559-5.973,50.181C8.531,83.596-2.595,91.666-13.954,91.438
				c-10.592-0.213-21.225-0.898-31.731-2.219c-13.697-1.721-22.648-11.426-31.75-20.564c-7.797-7.834-16.341-14.73-28.043-13.832
				c-8.916,0.686-17.872,1.727-25.369,8.393c-2.728,2.424-2.746,5.635-4.963,7.611c-11.563,10.303-24.366,18.539-40.538,17.563
				c-8.885-0.534-16.166-6.425-23.573-10.963c-8.141-4.983-15.975-10.514-23.64-16.205c-7.011-5.209-14.316-4.652-21.399-1.295
				c-9.064,4.305-17.842,9.252-25.922,15.346c-5.4,4.076-11.702,6.336-18.431,6.614c-12.634,0.526-16.196-3.433-22.876-16.175
				c-5.941-11.327-8.97-23.432-9.601-36.171"/>
			
				<path fill-rule="evenodd" clip-rule="evenodd" fill="none" stroke="#777777" stroke-width="8" stroke-linecap="round" stroke-linejoin="round" stroke-miterlimit="10" d="
				M0.655,609.582c-9.459,21.384-27.046,35.218-40.917,54.124"/>
		</g>
		
			<line fill-rule="evenodd" clip-rule="evenodd" fill="none" stroke="#777777" stroke-width="8" stroke-linecap="round" stroke-linejoin="round" stroke-miterlimit="10" x1="0.656" y1="923.248" x2="-27.651" y2="853.248"/>
	</g>
</g>
</svg>
